List recognized file formats (types) for read() and write() — data_types • data.io
…
    See also

    read(), write()

    Examples

if (FALSE) {
data_types()
data_types(TRUE)
}
# For non-interactive use, specify view = FALSE
data_types(view = FALSE)
#> # A tibble: 32 x 5
#>    type  read_fun       read_header     write_fun       comment                 
#>    <chr> <chr>          <chr>           <chr>           <chr>                   
#>  1 csv   readr::read_c… data.io::hread… readr::write_c… comma separated values  
#>  2 csv2  readr::read_c… data.io::hread… NA              semicolon separated val…
#>  3 xlcsv readr::read_c… data.io::hread… readr::write_e… write a CSV file more e…
#>  4 tsv   readr::read_t… data.io::hread… readr::write_t… tab separated values    
#>  5 fwf   readr::read_f… data.io::hread… NA              fixed width file        
#>  6 log   readr::read_l… NA              NA              standard log file       
#>  7 rds   readr::read_r… NA              readr::write_r… R data file (no compres…
#>  8 txt   readr::read_f… NA              readr::write_f… text file (as length 1 …
#>  9 raw   readr::read_f… NA              NA              binary file (read as ra…
#> 10 ssv   readr::read_t… data.io::hread… NA              space separated values …
#> # … with 22 more rows
…
