Temperature and atmospheric CO2 at Mauna Loa, Hawai — mauna_loa • data.io
…
# Using read(), the dataset becomes an annotated dataframe
(ml_en <- read("mauna_loa", package = "data.io"))
#> # A tibble: 768 x 5
#>        time avg_temp min_temp max_temp avg_co2
#>       <mth>    <dbl>    <dbl>    <dbl>   <dbl>
#>  1 1955 Jan      3.8     -5.6     10.6      NA
#>  2 1955 Feb      2.9     -6.7     10.6      NA
#>  3 1955 Mar      2.8     -6.7     12.8      NA
#>  4 1955 Apr      5.9     -3.3     17.2      NA
#>  5 1955 May      6.9     -1.7     16.7      NA
#>  6 1955 Jun      9       -0.6     17.8      NA
#>  7 1955 Jul      7.2     -3.3     16.7      NA
#>  8 1955 Aug      7.7     -2.2     16.7      NA
#>  9 1955 Sep      7.9     -1.7     16.7      NA
#> 10 1955 Oct      7       -1.7     18.3      NA
#> # … with 758 more rows
class(ml_en)
#> [1] "dataframe"  "tbl_df"     "tbl"        "data.frame"

# Indicating lang = "EN_US" (all uppercase!) also converts temperatures
# into degrees Farenheit
(ml_en_us <- read("mauna_loa", package = "data.io", lang = "EN_US"))
#> # A tibble: 768 x 5
#>        time avg_temp min_temp max_temp avg_co2
#>       <mth>    <dbl>    <dbl>    <dbl>   <dbl>
#>  1 1955 Jan     38.8     21.9     51.1      NA
#>  2 1955 Feb     37.2     19.9     51.1      NA
#>  3 1955 Mar     37       19.9     55        NA
#>  4 1955 Apr     42.6     26.1     63        NA
#>  5 1955 May     44.4     28.9     62.1      NA
#>  6 1955 Jun     48.2     30.9     64        NA
#>  7 1955 Jul     45       26.1     62.1      NA
#>  8 1955 Aug     45.9     28       62.1      NA
#>  9 1955 Sep     46.2     28.9     62.1      NA
#> 10 1955 Oct     44.6     28.9     64.9      NA
#> # … with 758 more rows
…
# The same in French:
 (ml_fr <- read("mauna_loa", package = "data.io", lang = "fr"))
#> # A tibble: 768 x 5
#>        time avg_temp min_temp max_temp avg_co2
#>       <mth>    <dbl>    <dbl>    <dbl>   <dbl>
#>  1 1955 Jan      3.8     -5.6     10.6      NA
#>  2 1955 Feb      2.9     -6.7     10.6      NA
#>  3 1955 Mar      2.8     -6.7     12.8      NA
#>  4 1955 Apr      5.9     -3.3     17.2      NA
#>  5 1955 May      6.9     -1.7     16.7      NA
#>  6 1955 Jun      9       -0.6     17.8      NA
#>  7 1955 Jul      7.2     -3.3     16.7      NA
#>  8 1955 Aug      7.7     -2.2     16.7      NA
#>  9 1955 Sep      7.9     -1.7     16.7      NA
#> 10 1955 Oct      7       -1.7     18.3      NA
#> # … with 758 more rows
…
