…
    See also

    data_types(), write(), read_csv()

    Examples

# Use of read() as a more flexible substitute to data() (can change dataset
# name and syntax more similar to read R datasets and datasets from files)
read() # List all available datasets in your installed version of R
# List datasets in one particular package
read(package = "data.io")

# Read one dataset from this package, possibly changing its name
(urchin <- read("urchin_bio", package = "data.io"))
#> # A tibble: 421 x 19
#>    origin diameter1 diameter2 height buoyant_weight weight solid_parts
#>    <fct>      <dbl>     <dbl>  <dbl>          <dbl>  <dbl>       <dbl>
#>  1 Fishe…       9.9      10.2    5               NA  0.522       0.478
#>  2 Fishe…      10.5      10.6    5.7             NA  0.642       0.589
#>  3 Fishe…      10.8      10.8    5.2             NA  0.734       0.677
#>  4 Fishe…       9.6       9.3    4.6             NA  0.370       0.344
#>  5 Fishe…      10.4      10.7    4.8             NA  0.610       0.559
#>  6 Fishe…      10.5      11.1    5               NA  0.610       0.551
#>  7 Fishe…      11        11      5.2             NA  0.672       0.605
#>  8 Fishe…      11.1      11.2    5.7             NA  0.703       0.628
#>  9 Fishe…       9.4       9.2    4.6             NA  0.413       0.375
#> 10 Fishe…      10.1       9.5    4.7             NA  0.449       0.398
#> # … with 411 more rows, and 12 more variables: integuments <dbl>,
#> #   dry_integuments <dbl>, digestive_tract <dbl>, dry_digestive_tract <dbl>,
#> #   gonads <dbl>, dry_gonads <dbl>, skeleton <dbl>, lantern <dbl>, test <dbl>,
#> #   spines <dbl>, maturity <int>, sex <fct>
# Same, but using labels in French
(urchin <- read("urchin_bio", package = "data.io", lang = "fr"))
#> # A tibble: 421 x 19
#>    origin diameter1 diameter2 height buoyant_weight weight solid_parts
#>    <fct>      <dbl>     <dbl>  <dbl>          <dbl>  <dbl>       <dbl>
#>  1 Fishe…       9.9      10.2    5               NA  0.522       0.478
#>  2 Fishe…      10.5      10.6    5.7             NA  0.642       0.589
#>  3 Fishe…      10.8      10.8    5.2             NA  0.734       0.677
#>  4 Fishe…       9.6       9.3    4.6             NA  0.370       0.344
#>  5 Fishe…      10.4      10.7    4.8             NA  0.610       0.559
#>  6 Fishe…      10.5      11.1    5               NA  0.610       0.551
#>  7 Fishe…      11        11      5.2             NA  0.672       0.605
#>  8 Fishe…      11.1      11.2    5.7             NA  0.703       0.628
#>  9 Fishe…       9.4       9.2    4.6             NA  0.413       0.375
#> 10 Fishe…      10.1       9.5    4.7             NA  0.449       0.398
#> # … with 411 more rows, and 12 more variables: integuments <dbl>,
#> #   dry_integuments <dbl>, digestive_tract <dbl>, dry_digestive_tract <dbl>,
#> #   gonads <dbl>, dry_gonads <dbl>, skeleton <dbl>, lantern <dbl>, test <dbl>,
#> #   spines <dbl>, maturity <int>, sex <fct>
# ... and also the levels of factors in French (note: uppercase FR)
(urchin <- read("urchin_bio", package = "data.io", lang = "FR"))
#> # A tibble: 421 x 19
#>    origin diameter1 diameter2 height buoyant_weight weight solid_parts
#>    <fct>      <dbl>     <dbl>  <dbl>          <dbl>  <dbl>       <dbl>
#>  1 Pêche…       9.9      10.2    5               NA  0.522       0.478
#>  2 Pêche…      10.5      10.6    5.7             NA  0.642       0.589
#>  3 Pêche…      10.8      10.8    5.2             NA  0.734       0.677
#>  4 Pêche…       9.6       9.3    4.6             NA  0.370       0.344
#>  5 Pêche…      10.4      10.7    4.8             NA  0.610       0.559
#>  6 Pêche…      10.5      11.1    5               NA  0.610       0.551
#>  7 Pêche…      11        11      5.2             NA  0.672       0.605
#>  8 Pêche…      11.1      11.2    5.7             NA  0.703       0.628
#>  9 Pêche…       9.4       9.2    4.6             NA  0.413       0.375
#> 10 Pêche…      10.1       9.5    4.7             NA  0.449       0.398
#> # … with 411 more rows, and 12 more variables: integuments <dbl>,
#> #   dry_integuments <dbl>, digestive_tract <dbl>, dry_digestive_tract <dbl>,
#> #   gonads <dbl>, dry_gonads <dbl>, skeleton <dbl>, lantern <dbl>, test <dbl>,
#> #   spines <dbl>, maturity <int>, sex <fct>
# Read one dataset from another package, but with labels and comments
data(iris) # The R way: you got the initial datasets
# Same result, using read()
ir2 <- read("iris", package = "datasets", lang = NULL, as_dataframe = FALSE)
# ir2 records that it comes from datasets::iris
attr(comment(ir2), "src")
#> [1] "datasets::iris"
# appart from that, it is identical to iris
comment(ir2) <- NULL
identical(iris, ir2)
#> [1] TRUE
# More interesting: you can get an enhanced version of iris with read():
# (note that variable names ar in snake-case now!)
(ir3 <- read("iris", package = "datasets"))
#> # A tibble: 150 x 5
#>    sepal_length sepal_width petal_length petal_width species
#>           <dbl>       <dbl>        <dbl>       <dbl> <fct>  
#>  1          5.1         3.5          1.4         0.2 setosa 
#>  2          4.9         3            1.4         0.2 setosa 
#>  3          4.7         3.2          1.3         0.2 setosa 
#>  4          4.6         3.1          1.5         0.2 setosa 
#>  5          5           3.6          1.4         0.2 setosa 
#>  6          5.4         3.9          1.7         0.4 setosa 
#>  7          4.6         3.4          1.4         0.3 setosa 
#>  8          5           3.4          1.5         0.2 setosa 
#>  9          4.4         2.9          1.4         0.2 setosa 
#> 10          4.9         3.1          1.5         0.1 setosa 
#> # … with 140 more rows
…
#>  [19] 5.7 5.1 5.4 5.1 4.6 5.1 4.8 5.0 5.0 5.2 5.2 4.7 4.8 5.4 5.2 5.5 4.9 5.0
#>  [37] 5.5 4.9 4.4 5.1 5.0 4.5 4.4 5.0 5.1 4.8 5.1 4.6 5.3 5.0 7.0 6.4 6.9 5.5
#>  [55] 6.5 5.7 6.3 4.9 6.6 5.2 5.0 5.9 6.0 6.1 5.6 6.7 5.6 5.8 6.2 5.6 5.9 6.1
#>  [73] 6.3 6.1 6.4 6.6 6.8 6.7 6.0 5.7 5.5 5.5 5.8 6.0 5.4 6.0 6.7 6.3 5.6 5.5
#>  [91] 5.5 6.1 5.8 5.0 5.6 5.7 5.7 6.2 5.1 5.7 6.3 5.8 7.1 6.3 6.5 7.6 4.9 7.3
#> [109] 6.7 7.2 6.5 6.4 6.8 5.7 5.8 6.4 6.5 7.7 7.7 6.0 6.9 5.6 7.7 6.3 6.7 7.2
#> [127] 6.2 6.1 6.4 7.2 7.4 7.9 6.4 6.3 6.1 7.7 6.3 6.4 6.0 6.9 6.7 6.9 5.8 6.8
#> [145] 6.7 6.7 6.3 6.5 6.2 5.9
#> attr(,"label")
#> [1] "Length of the sepals"
#> attr(,"units")
#> [1] "cm"
# ... and you can get it in French too!
(ir_fr <- read("iris", package = "datasets", lang = "fr"))
#> # A tibble: 150 x 5
#>    sepal_length sepal_width petal_length petal_width species
#>           <dbl>       <dbl>        <dbl>       <dbl> <fct>  
#>  1          5.1         3.5          1.4         0.2 setosa 
#>  2          4.9         3            1.4         0.2 setosa 
#>  3          4.7         3.2          1.3         0.2 setosa 
#>  4          4.6         3.1          1.5         0.2 setosa 
#>  5          5           3.6          1.4         0.2 setosa 
#>  6          5.4         3.9          1.7         0.4 setosa 
#>  7          4.6         3.4          1.4         0.3 setosa 
#>  8          5           3.4          1.5         0.2 setosa 
#>  9          4.4         2.9          1.4         0.2 setosa 
#> 10          4.9         3.1          1.5         0.1 setosa 
#> # … with 140 more rows
…
# Sometimes, datasets are more deeply reworked. For instance, trees has
# variables in imperial units (in, ft, and cubic ft), but it is automatically
# reworked by read() into metric variables (m or m^3):
data(trees)
head(trees)
#>   Girth Height Volume
#> 1   8.3     70   10.3
#> 2   8.6     65   10.3
#> 3   8.8     63   10.2
#> 4  10.5     72   16.4
#> 5  10.7     81   18.8
#> 6  10.8     83   19.7
(trees2 <- read("trees", package = "datasets"))
#> # A tibble: 31 x 3
#>    diameter height volume
#>       <dbl>  <dbl>  <dbl>
#>  1    0.211   21.3  0.292
#>  2    0.218   19.8  0.292
#>  3    0.224   19.2  0.289
#>  4    0.267   21.9  0.464
#>  5    0.272   24.7  0.532
#>  6    0.274   25.3  0.558
#>  7    0.279   20.1  0.442
#>  8    0.279   22.9  0.515
#>  9    0.282   24.4  0.64 
#> 10    0.284   22.9  0.563
#> # … with 21 more rows
…
# Various versions of the famous iris dataset
(iris <- read(data_example("iris.csv")))
#> Parsed with column specification:
#> cols(
#>   Sepal.Length = col_double(),
#>   Sepal.Width = col_double(),
#>   Petal.Length = col_double(),
#>   Petal.Width = col_double(),
#>   Species = col_character()
#> )
#> # A tibble: 150 x 5
#>    Sepal.Length Sepal.Width Petal.Length Petal.Width Species
#>           <dbl>       <dbl>        <dbl>       <dbl> <chr>  
#>  1          5.1         3.5          1.4         0.2 setosa 
#>  2          4.9         3            1.4         0.2 setosa 
#>  3          4.7         3.2          1.3         0.2 setosa 
#>  4          4.6         3.1          1.5         0.2 setosa 
#>  5          5           3.6          1.4         0.2 setosa 
#>  6          5.4         3.9          1.7         0.4 setosa 
#>  7          4.6         3.4          1.4         0.3 setosa 
#>  8          5           3.4          1.5         0.2 setosa 
#>  9          4.4         2.9          1.4         0.2 setosa 
#> 10          4.9         3.1          1.5         0.1 setosa 
#> # … with 140 more rows
(iris <- read(data_example("iris.csv.zip")))
#> Parsed with column specification:
#> cols(
#>   Sepal.Length = col_double(),
#>   Sepal.Width = col_double(),
#>   Petal.Length = col_double(),
#>   Petal.Width = col_double(),
#>   Species = col_character()
#> )
#> # A tibble: 150 x 5
#>    Sepal.Length Sepal.Width Petal.Length Petal.Width Species
#>           <dbl>       <dbl>        <dbl>       <dbl> <chr>  
#>  1          5.1         3.5          1.4         0.2 setosa 
#>  2          4.9         3            1.4         0.2 setosa 
#>  3          4.7         3.2          1.3         0.2 setosa 
#>  4          4.6         3.1          1.5         0.2 setosa 
#>  5          5           3.6          1.4         0.2 setosa 
#>  6          5.4         3.9          1.7         0.4 setosa 
#>  7          4.6         3.4          1.4         0.3 setosa 
#>  8          5           3.4          1.5         0.2 setosa 
#>  9          4.4         2.9          1.4         0.2 setosa 
#> 10          4.9         3.1          1.5         0.1 setosa 
#> # … with 140 more rows
(iris <- read(data_example("iris.csv.tar"))) ##
#> Parsed with column specification:
#> cols(
#>   iris.csv = col_double(),
#>   Sepal.Width = col_double(),
#>   Petal.Length = col_double(),
#>   Petal.Width = col_double(),
#>   Species = col_character()
#> )
#> Warning: 2 parsing failures.
#> row      col  expected    actual                                                                            file
#> 151 iris.csv a double            '/Users/runner/runners/2.169.1/work/_temp/Library/data.io/extdata/iris.csv.tar'
#> 151 NA       5 columns 1 columns '/Users/runner/runners/2.169.1/work/_temp/Library/data.io/extdata/iris.csv.tar'
#> # A tibble: 151 x 5
#>    iris.csv Sepal.Width Petal.Length Petal.Width Species
#>       <dbl>       <dbl>        <dbl>       <dbl> <chr>  
#>  1      5.1         3.5          1.4         0.2 setosa 
#>  2      4.9         3            1.4         0.2 setosa 
#>  3      4.7         3.2          1.3         0.2 setosa 
#>  4      4.6         3.1          1.5         0.2 setosa 
#>  5      5           3.6          1.4         0.2 setosa 
#>  6      5.4         3.9          1.7         0.4 setosa 
#>  7      4.6         3.4          1.4         0.3 setosa 
#>  8      5           3.4          1.5         0.2 setosa 
#>  9      4.4         2.9          1.4         0.2 setosa 
#> 10      4.9         3.1          1.5         0.1 setosa 
#> # … with 141 more rows
(iris <- read(data_example("iris.csv.tar.gz"))) ##
#> Parsed with column specification:
#> cols(
#>   iris.csv = col_double(),
#>   Sepal.Width = col_double(),
#>   Petal.Length = col_double(),
#>   Petal.Width = col_double(),
#>   Species = col_character()
#> )
#> Warning: 2 parsing failures.
#> row      col  expected    actual                                                                               file
#> 151 iris.csv a double            '/Users/runner/runners/2.169.1/work/_temp/Library/data.io/extdata/iris.csv.tar.gz'
#> 151 NA       5 columns 1 columns '/Users/runner/runners/2.169.1/work/_temp/Library/data.io/extdata/iris.csv.tar.gz'
#> # A tibble: 151 x 5
#>    iris.csv Sepal.Width Petal.Length Petal.Width Species
#>       <dbl>       <dbl>        <dbl>       <dbl> <chr>  
#>  1      5.1         3.5          1.4         0.2 setosa 
#>  2      4.9         3            1.4         0.2 setosa 
#>  3      4.7         3.2          1.3         0.2 setosa 
#>  4      4.6         3.1          1.5         0.2 setosa 
#>  5      5           3.6          1.4         0.2 setosa 
#>  6      5.4         3.9          1.7         0.4 setosa 
#>  7      4.6         3.4          1.4         0.3 setosa 
#>  8      5           3.4          1.5         0.2 setosa 
#>  9      4.4         2.9          1.4         0.2 setosa 
#> 10      4.9         3.1          1.5         0.1 setosa 
#> # … with 141 more rows
(iris <- read(data_example("iris.csv.gz")))
#> Parsed with column specification:
#> cols(
#>   Sepal.Length = col_double(),
#>   Sepal.Width = col_double(),
#>   Petal.Length = col_double(),
#>   Petal.Width = col_double(),
#>   Species = col_character()
#> )
#> # A tibble: 150 x 5
#>    Sepal.Length Sepal.Width Petal.Length Petal.Width Species
#>           <dbl>       <dbl>        <dbl>       <dbl> <chr>  
#>  1          5.1         3.5          1.4         0.2 setosa 
#>  2          4.9         3            1.4         0.2 setosa 
#>  3          4.7         3.2          1.3         0.2 setosa 
#>  4          4.6         3.1          1.5         0.2 setosa 
#>  5          5           3.6          1.4         0.2 setosa 
#>  6          5.4         3.9          1.7         0.4 setosa 
#>  7          4.6         3.4          1.4         0.3 setosa 
#>  8          5           3.4          1.5         0.2 setosa 
#>  9          4.4         2.9          1.4         0.2 setosa 
#> 10          4.9         3.1          1.5         0.1 setosa 
#> # … with 140 more rows
(iris <- read(data_example("iris.csv.bz2")))
#> Parsed with column specification:
#> cols(
#>   Sepal.Length = col_double(),
#>   Sepal.Width = col_double(),
#>   Petal.Length = col_double(),
#>   Petal.Width = col_double(),
#>   Species = col_character()
#> )
#> # A tibble: 150 x 5
#>    Sepal.Length Sepal.Width Petal.Length Petal.Width Species
#>           <dbl>       <dbl>        <dbl>       <dbl> <chr>  
#>  1          5.1         3.5          1.4         0.2 setosa 
#>  2          4.9         3            1.4         0.2 setosa 
#>  3          4.7         3.2          1.3         0.2 setosa 
#>  4          4.6         3.1          1.5         0.2 setosa 
#>  5          5           3.6          1.4         0.2 setosa 
#>  6          5.4         3.9          1.7         0.4 setosa 
#>  7          4.6         3.4          1.4         0.3 setosa 
#>  8          5           3.4          1.5         0.2 setosa 
#>  9          4.4         2.9          1.4         0.2 setosa 
#> 10          4.9         3.1          1.5         0.1 setosa 
#> # … with 140 more rows
(iris <- read(data_example("iris.tsv")))
#> Parsed with column specification:
#> cols(
#>   Sepal.Length = col_double(),
#>   Sepal.Width = col_double(),
#>   Petal.Length = col_double(),
#>   Petal.Width = col_double(),
#>   Species = col_character()
#> )
#> # A tibble: 150 x 5
#>    Sepal.Length Sepal.Width Petal.Length Petal.Width Species
#>           <dbl>       <dbl>        <dbl>       <dbl> <chr>  
#>  1          5.1         3.5          1.4         0.2 setosa 
#>  2          4.9         3            1.4         0.2 setosa 
#>  3          4.7         3.2          1.3         0.2 setosa 
#>  4          4.6         3.1          1.5         0.2 setosa 
#>  5          5           3.6          1.4         0.2 setosa 
#>  6          5.4         3.9          1.7         0.4 setosa 
#>  7          4.6         3.4          1.4         0.3 setosa 
#>  8          5           3.4          1.5         0.2 setosa 
#>  9          4.4         2.9          1.4         0.2 setosa 
#> 10          4.9         3.1          1.5         0.1 setosa 
#> # … with 140 more rows
(iris <- read(data_example("iris.xls")))
#> New names:
#> * `` -> ...1
#> # A tibble: 150 x 5
#>    Sepal.Length Sepal.Width Petal.Length Petal.Width Species
#>           <dbl>       <dbl>        <dbl>       <dbl> <chr>  
#>  1          5.1         3.5          1.4         0.2 setosa 
#>  2          4.9         3            1.4         0.2 setosa 
#>  3          4.7         3.2          1.3         0.2 setosa 
#>  4          4.6         3.1          1.5         0.2 setosa 
#>  5          5           3.6          1.4         0.2 setosa 
#>  6          5.4         3.9          1.7         0.4 setosa 
#>  7          4.6         3.4          1.4         0.3 setosa 
#>  8          5           3.4          1.5         0.2 setosa 
#>  9          4.4         2.9          1.4         0.2 setosa 
#> 10          4.9         3.1          1.5         0.1 setosa 
#> # … with 140 more rows
(iris <- read(data_example("iris.xlsx")))
#> New names:
#> * `` -> ...1
#> # A tibble: 150 x 5
#>    Sepal.Length Sepal.Width Petal.Length Petal.Width Species
#>           <dbl>       <dbl>        <dbl>       <dbl> <chr>  
#>  1          5.1         3.5          1.4         0.2 setosa 
#>  2          4.9         3            1.4         0.2 setosa 
#>  3          4.7         3.2          1.3         0.2 setosa 
#>  4          4.6         3.1          1.5         0.2 setosa 
#>  5          5           3.6          1.4         0.2 setosa 
#>  6          5.4         3.9          1.7         0.4 setosa 
#>  7          4.6         3.4          1.4         0.3 setosa 
#>  8          5           3.4          1.5         0.2 setosa 
#>  9          4.4         2.9          1.4         0.2 setosa 
#> 10          4.9         3.1          1.5         0.1 setosa 
#> # … with 140 more rows
(iris <- read(data_example("iris.rds"))) # Does not tranform into tibble!
#> # A tibble: 150 x 5
#>    Sepal.Length Sepal.Width Petal.Length Petal.Width Species
#>           <dbl>       <dbl>        <dbl>       <dbl> <fct>  
#>  1          5.1         3.5          1.4         0.2 setosa 
#>  2          4.9         3            1.4         0.2 setosa 
#>  3          4.7         3.2          1.3         0.2 setosa 
#>  4          4.6         3.1          1.5         0.2 setosa 
#>  5          5           3.6          1.4         0.2 setosa 
#>  6          5.4         3.9          1.7         0.4 setosa 
#>  7          4.6         3.4          1.4         0.3 setosa 
#>  8          5           3.4          1.5         0.2 setosa 
#>  9          4.4         2.9          1.4         0.2 setosa 
#> 10          4.9         3.1          1.5         0.1 setosa 
#> # … with 140 more rows
…
