SciViews datasets and read()/write() functions • data.io
…
ble <- read$csv("http://tinyurl.com/Biostat-Ble",
  cache_file = ble_cache_file, force = TRUE)

List of supported file formats

The list of file formats that read() and
write() can handle is summarized in the table produced by
data_types() (using the default view = TRUE
automatically opens a view in RStudio or the web browser with that
table):

data.io::data_types(view = FALSE)
#> # A tibble: 32 × 5
#>    type  read_fun             read_header         write_fun              comment
#>    <chr> <chr>                <chr>               <chr>                  <chr>  
#>  1 csv   readr::read_csv      data.io::hread_text readr::write_csv       comma …
#>  2 csv2  readr::read_csv2     data.io::hread_text NA                     semico…
#>  3 xlcsv readr::read_csv      data.io::hread_text readr::write_excel_csv write …
#>  4 tsv   readr::read_tsv      data.io::hread_text readr::write_tsv       tab se…
#>  5 fwf   readr::read_fwf      data.io::hread_text NA                     fixed …
#>  6 log   readr::read_log      NA                  NA                     standa…
#>  7 rds   readr::read_rds      NA                  readr::write_rds       R data…
#>  8 txt   readr::read_file     NA                  readr::write_file      text f…
#>  9 raw   readr::read_file_raw NA                  NA                     binary…
#> 10 ssv   readr::read_table    data.io::hread_text NA                     space …
#> # ℹ 22 more rows
…
